{
  "LuaSnip": { "branch": "master", "commit": "e808bee352d1a6fcf902ca1a71cee76e60e24071" },
  "adwaita.nvim": { "branch": "main", "commit": "c9379097755701ab597140bafd097fbaff3dd517" },
  "bufferline.nvim": { "branch": "main", "commit": "0b2fd861eee7595015b6561dade52fb060be10c4" },
  "cmp-buffer": { "branch": "main", "commit": "3022dbc9166796b644a841a02de8dd1cc1d311fa" },
  "cmp-nvim-lsp": { "branch": "main", "commit": "39e2eda76828d88b773cc27a3f61d2ad782c922d" },
  "cmp-path": { "branch": "main", "commit": "91ff86cd9c29299a64f968ebb45846c485725f23" },
  "cmp_luasnip": { "branch": "master", "commit": "05a9ab28b53f71d1aece421ef32fee2cb857a843" },
  "cool.nvim": { "branch": "main", "commit": "ed5b909a2bf068ad13b86ce4357c1dc5b0ca113c" },
  "diffview.nvim": { "branch": "main", "commit": "4516612fe98ff56ae0415a259ff6361a89419b0a" },
  "dressing.nvim": { "branch": "master", "commit": "1b7921eecc65af1baf8ac1dc06f0794934cbcfb2" },
  "edge": { "branch": "master", "commit": "2a9c299416c5bdf0506baefcd4635f85f5718c10" },
  "eldritch.nvim": { "branch": "master", "commit": "48788ef2f7be7e86b0a57ef87f1a96bc18e24b8b" },
  "flutter-tools.nvim": { "branch": "main", "commit": "ce18f5da5f9c458cd26eef5c3accb0c37b2263c2" },
  "friendly-snippets": { "branch": "main", "commit": "de8fce94985873666bd9712ea3e49ee17aadb1ed" },
  "headlines.nvim": { "branch": "master", "commit": "bf17c96a836ea27c0a7a2650ba385a7783ed322e" },
  "lazy.nvim": { "branch": "main", "commit": "1159bdccd8910a0fd0914b24d6c3d186689023d9" },
  "lf.vim": { "branch": "master", "commit": "80a2ef0b1632258c6f5bfce21524c3b3d949a774" },
  "lsp-zero.nvim": { "branch": "v2.x", "commit": "9a686513eaaa13d737d0fec8956a18268ead8b29" },
  "lua-utils.nvim": { "branch": "main", "commit": "e565749421f4bbb5d2e85e37c3cef9d56553d8bd" },
  "lualine.nvim": { "branch": "master", "commit": "b431d228b7bbcdaea818bdc3e25b8cdbe861f056" },
  "markdown-togglecheck": { "branch": "main", "commit": "5e9ee3184109a102952c01ef816babe8835b299a" },
  "mason-lspconfig.nvim": { "branch": "main", "commit": "25c11854aa25558ee6c03432edfa0df0217324be" },
  "mason-nvim-dap.nvim": { "branch": "main", "commit": "8b9363d83b5d779813cdd2819b8308651cec2a09" },
  "mason.nvim": { "branch": "main", "commit": "e2f7f9044ec30067bc11800a9e266664b88cda22" },
  "neogit": { "branch": "master", "commit": "c3ff049446e0920d02a5828c4e3619243d3c6e15" },
  "neon": { "branch": "main", "commit": "7765aaa7d1cd3804176140644640766e4411c766" },
  "neorg": { "branch": "main", "commit": "afc9a37bf021acb0853e95714c4c6436e1588286" },
  "nui.nvim": { "branch": "main", "commit": "b58e2bfda5cea347c9d58b7f11cf3012c7b3953f" },
  "nvim-autopairs": { "branch": "master", "commit": "ee297f215e95a60b01fde33275cc3c820eddeebe" },
  "nvim-cmp": { "branch": "main", "commit": "ae644feb7b67bf1ce4260c231d1d4300b19c6f30" },
  "nvim-dap": { "branch": "master", "commit": "7ff6936010b7222fea2caea0f67ed77f1b7c60dd" },
  "nvim-dap-go": { "branch": "main", "commit": "6aa88167ea1224bcef578e8c7160fe8afbb44848" },
  "nvim-dap-ui": { "branch": "master", "commit": "ffa89839f97bad360e78428d5c740fdad9a0ff02" },
  "nvim-lspconfig": { "branch": "master", "commit": "04680101ff79e99b4e33a4386ec27cbd0d360c75" },
  "nvim-nio": { "branch": "master", "commit": "a428f309119086dc78dd4b19306d2d67be884eee" },
  "nvim-tree.lua": { "branch": "master", "commit": "50e919426a4a2053f78b2f8ab001c8ad8eb47ef6" },
  "nvim-treesitter": { "branch": "master", "commit": "86c10df7ef77daf45a0e4a918934bb59083db1e1" },
  "nvim-treesitter-textobjects": { "branch": "master", "commit": "b91c98afa6c42819aea6cbc1ba38272f5456a5cf" },
  "nvim-ts-autotag": { "branch": "main", "commit": "e239a560f338be31337e7abc3ee42515daf23f5e" },
  "nvim-web-devicons": { "branch": "master", "commit": "56f17def81478e406e3a8ec4aa727558e79786f3" },
  "oil.nvim": { "branch": "master", "commit": "ccab9d5e09e2d0042fbbe5b6bd05e82426247067" },
  "org-bullets.nvim": { "branch": "main", "commit": "46ae687e22192fb806b5977d664ec98af9cf74f6" },
  "orgmode": { "branch": "master", "commit": "8ead368a78c7e1df0c15432dfb41d95dd4365f5c" },
  "pathlib.nvim": { "branch": "main", "commit": "57e5598af6fe253761c1b48e0b59b7cd6699e2c1" },
  "plenary.nvim": { "branch": "master", "commit": "2d9b06177a975543726ce5c73fca176cedbffe9d" },
  "rainbow-delimiters.nvim": { "branch": "master", "commit": "d227e6c9879bb50af35cd733461198666981d482" },
  "roslyn.nvim": { "branch": "main", "commit": "3e360ea5a15f3cf7ddef02ff003ef24244cdff3a" },
  "startup.nvim": { "branch": "master", "commit": "81222a9956148eebf10363726d8bccf8793aa41f" },
  "telescope.nvim": { "branch": "master", "commit": "dc6fc321a5ba076697cca89c9d7ea43153276d81" },
  "todo-comments.nvim": { "branch": "main", "commit": "ae0a2afb47cf7395dc400e5dc4e05274bf4fb9e0" },
  "treesitter-utils": { "branch": "main", "commit": "df621499e4227f0476f6f4bdb75a9d8dd18d16f2" },
  "trouble.nvim": { "branch": "main", "commit": "254145ffd528b98eb20be894338e2d5c93fa02c2" },
  "vim-abolish": { "branch": "master", "commit": "dcbfe065297d31823561ba787f51056c147aa682" },
  "vim-floaterm": { "branch": "master", "commit": "4e28c8dd0271e10a5f55142fb6fe9b1599ee6160" },
  "vim-gitgutter": { "branch": "main", "commit": "7b0b5098e3e57be86bb96cfbf2b8902381eef57c" },
  "vim-moonfly-colors": { "branch": "master", "commit": "7de26ecf5216fffd974ce8f3e4793b8bb1c70ad0" },
  "vim-razor": { "branch": "master", "commit": "305dd1db88c657c0c02effbee1a88048479bb0c4" },
  "vim-surround": { "branch": "master", "commit": "3d188ed2113431cf8dac77be61b842acb64433d9" },
  "which-key.nvim": { "branch": "main", "commit": "8badb359f7ab8711e2575ef75dfe6fbbd87e4821" }
}
